target_desktop/captures/vcd_cap_edited.vcd
********************************************************************************
$date
   2016-02-18 20:55
$end
$version
   generated by ./vcdcap_to_vcd.py
$end
$comment
   generated by ./vcdcap_to_vcd.py
$end
$timescale 1us $end
$scope module logic $end
$var wire 1 $ mbus $end
$upscope $end
$enddefinitions $end
$dumpvars
x$
$end
#19030036
0$
#19031927
1$
#19033178
0$
#19035065
1$
#19036315
0$
#19038207
1$
#19039459
0$
#19040138
1$
#19042601
0$
#19043275
1$
#19045741
0$
#19046417
1$
#19048882
0$
#19049556
1$
#19052025
0$
#19052698
1$
#19055165
0$
#19055841
1$
#19058308
0$
#19058984
1$
#19061450
0$
#19062132
1$
#19064588
0$
#19065264
1$
#19067728
0$
#19068410
1$
#19070881
0$
#19071558
1$
#19074021
0$
#19074694
1$
#19077164
0$
#19077838
1$
#19080304
0$
#19080978
1$
#19083439
0$
#19084119
1$
#19086585
0$
#19088474
1$
#19089725
0$
#19091614
1$
#19092865
0$
#19093545
1$
#19096011
0$
#19096681
1$
#19099151
0$
#19099824
1$
#19900651
0$
#19902541
1$
#19903791
0$
#19904467
1$
#19906934
0$
#19907608
1$
#19910074
0$
#19911966
1$
#19913224
0$
#19915113
1$
#19916361
0$
#19917037
1$
#19919504
0$
#19920181
1$
#19922647
0$
#19924542
1$
#19925790
0$
#19926469
1$
#19928936
0$
#19930822
1$
#19932073
0$
#19932752
1$
#19935215
0$
#19935891
1$
#19938356
0$
#19939038
1$
#19941498
0$
#19942175
1$
#19944635
0$
#19945314
1$
#19947779
0$
#19948456
1$
#19950919
0$
#19951603
1$
#19954062
0$
#19955957
1$
#19957206
0$
#19957885
1$
#19960348
0$
#19961027
1$
#19963498
0$
#19964173
1$
#19966642
0$
#19967316
1$
#19969782
0$
#19970456
1$
#19972919
0$
#19973596
1$
#19976066
0$
#19976744
1$
#19979205
0$
#19979886
1$
#19982345
0$
#19983023
1$
#19985489
0$
#19987380
1$
#19988631
0$
#19989308
1$
#19991776
0$
#19992449
1$
#19994915
0$
#19995591
1$
#19998057
0$
#19998736
1$
#20001200
0$
#20001875
1$
#20004337
0$
#20005016
1$
#20007479
0$
#20009371
1$
#20010622
0$
#20011299
1$
#20013765
0$
#20014441
1$
#20016907
0$
#20017584
1$
#20020054
0$
#20021945
1$
#20023194
0$
#20023873
1$
#20026342
0$
#20028228
1$
#20029480
0$
#20030159
1$
#20032622
0$
#20033301
1$
#20035767
0$
#20036444
1$
#20038908
0$
#20039585
1$
#20042049
0$
#20042725
1$
#20045189
0$
#20045865
1$
#20048333
0$
#20049012
1$
#20051478
0$
#20052152
1$
#20054620
0$
#20055289
1$
#20057761
0$
#20058435
1$
#20060906
0$
#20061580
1$
#20064046
0$
#20064720
1$
#20067189
0$
#20067863
1$
#20070332
0$
#20071006
1$
#20073474
0$
#20074149
1$
#20076615
0$
#20077291
1$
#20079760
0$
#20080434
1$
#20082897
0$
#20083575
1$
#20086044
0$
#20087935
1$
#20089186
0$
#20091078
1$
#20092328
0$
#20093006
1$
#20095467
0$
#20096146
1$
#20098612
0$
#20100501
1$
#20904427
0$
#20906314
1$
#20907569
0$
#20908246
1$
#20910710
0$
#20911387
1$
#20913858
0$
#20915749
1$
#20916994
0$
#20918886
1$
#20920137
0$
#20920813
1$
#20923278
0$
#20923954
1$
#20926418
0$
#20928310
1$
#20929560
0$
#20930237
1$
#20932701
0$
#20934590
1$
#20935843
0$
#20936520
1$
#20938983
0$
#20939660
1$
#20942127
0$
#20942803
1$
#20945267
0$
#20945946
1$
#20948412
0$
#20949086
1$
#20951553
0$
#20952227
1$
#20954695
0$
#20955370
1$
#20957841
0$
#20959729
1$
#20960977
0$
#20961653
1$
#20964117
0$
#20964793
1$
#20967256
0$
#20967934
1$
#20970402
0$
#20971079
1$
#20973545
0$
#20974222
1$
#20976693
0$
#20977368
1$
#20979836
0$
#20980510
1$
#20982976
0$
#20983652
1$
#20986121
0$
#20986795
1$
#20989257
0$
#20991149
1$
#20992399
0$
#20993076
1$
#20995541
0$
#20996219
1$
#20998685
0$
#20999357
1$
#21001828
0$
#21002497
1$
#21004966
0$
#21005642
1$
#21008103
0$
#21008784
1$
#21011245
0$
#21013145
1$
#21014388
0$
#21015062
1$
#21017531
0$
#21018205
1$
#21020674
0$
#21021348
1$
#21023812
0$
#21025706
1$
#21026957
0$
#21027631
1$
#21030100
0$
#21031992
1$
#21033244
0$
#21033917
1$
#21036386
0$
#21037060
1$
#21039521
0$
#21041418
1$
#21042672
0$
#21043348
1$
#21045815
0$
#21046491
1$
#21048955
0$
#21049629
1$
#21052099
0$
#21052775
1$
#21055236
0$
#21055915
1$
#21058376
0$
#21059056
1$
#21061520
0$
#21062194
1$
#21064662
0$
#21065339
1$
#21067805
0$
#21068482
1$
#21070945
0$
#21071619
1$
#21074086
0$
#21074762
1$
#21077228
0$
#21077903
1$
#21080372
0$
#21081045
1$
#21083509
0$
#21084188
1$
#21086659
0$
#21087334
1$
#21089802
0$
#21091692
1$
#21092940
0$
#21094834
1$
#21096080
0$
#21096759
1$
#21099223
0$
#21101115
1$
#21102365
0$
#21103039
1$
#21895234
0$
#21897125
1$
#21898375
0$
#21899051
1$
#21901521
0$
#21902192
1$
#21904663
0$
#21906552
1$
#21907800
0$
#21909692
1$
#21910940
0$
#21911619
1$
#21914084
0$
#21914762
1$
#21917226
0$
#21919116
1$
#21920369
0$
#21921048
1$
#21923512
0$
#21925407
1$
#21926652
0$
#21927328
1$
#21929799
0$
#21930471
1$
#21932940
0$
#21933614
1$
#21936079
0$
#21936757
1$
#21939218
0$
#21939899
1$
#21942358
0$
#21943037
1$
#21945503
0$
#21946177
1$
#21948646
0$
#21950536
1$
#21951787
0$
#21952463
1$
#21954929
0$
#21955606
1$
#21958073
0$
#21958750
1$
#21961213
0$
#21961887
1$
#21964350
0$
#21965030
1$
#21967501
0$
#21968173
1$
#21970636
0$
#21971315
1$
#21973776
0$
#21974455
1$
#21976919
0$
#21977599
1$
#21980062
0$
#21981954
1$
#21983205
0$
#21983878
1$
#21986347
0$
#21987022
1$
#21989485
0$
#21990162
1$
#21992623
0$
#21993299
1$
#21995766
0$
#21996445
1$
#21998908
0$
#21999585
1$
#22002051
0$
#22003943
1$
#22005190
0$
#22005868
1$
#22008335
0$
#22009011
1$
#22011477
0$
#22012152
1$
#22014615
0$
#22016510
1$
#22017758
0$
#22019649
1$
#22020900
0$
#22021576
1$
#22024041
0$
#22024717
1$
#22027184
0$
#22027860
1$
#22030324
0$
#22031003
1$
#22033469
0$
#22034146
1$
#22036612
0$
#22037288
1$
#22039751
0$
#22040425
1$
#22042892
0$
#22043568
1$
#22046037
0$
#22046713
1$
#22049172
0$
#22049852
1$
#22052318
0$
#22052994
1$
#22055460
0$
#22056137
1$
#22058600
0$
#22059277
1$
#22061741
0$
#22062417
1$
#22064885
0$
#22065557
1$
#22068028
0$
#22068703
1$
#22071169
0$
#22071840
1$
#22074304
0$
#22074985
1$
#22077449
0$
#22078127
1$
#22080590
0$
#22082482
1$
#22083735
0$
#22084409
1$
#22086877
0$
#22087555
1$
#22090024
0$
#22091915
1$
#22093171
0$
#22093845
1$
#22905153
0$
#22907038
1$
#22908290
0$
#22908963
1$
#22911431
0$
#22912105
1$
#22914571
0$
#22916460
1$
#22917710
0$
#22919599
1$
#22920855
0$
#22921528
1$
#22923993
0$
#22924666
1$
#22927133
0$
#22929022
1$
#22930272
0$
#22930948
1$
#22933418
0$
#22935305
1$
#22936558
0$
#22937232
1$
#22939695
0$
#22940372
1$
#22942839
0$
#22943513
1$
#22945981
0$
#22946655
1$
#22949117
0$
#22949795
1$
#22952260
0$
#22952933
1$
#22955400
0$
#22956076
1$
#22958542
0$
#22960432
1$
#22961685
0$
#22962359
1$
#22964825
0$
#22965499
1$
#22967962
0$
#22968640
1$
#22971106
0$
#22971780
1$
#22974247
0$
#22974925
1$
#22977389
0$
#22978064
1$
#22980527
0$
#22981209
1$
#22983669
0$
#22984348
1$
#22986817
0$
#22987486
1$
#22989952
0$
#22991844
1$
#22993092
0$
#22993768
1$
#22996237
0$
#22996912
1$
#22999381
0$
#23000057
1$
#23002518
0$
#23003198
1$
#23005662
0$
#23006337
1$
#23008803
0$
#23009480
1$
#23011948
0$
#23013838
1$
#23015084
0$
#23015763
1$
#23018227
0$
#23018903
1$
#23021369
0$
#23022048
1$
#23024513
0$
#23026400
1$
#23027655
0$
#23029542
1$
#23030801
0$
#23031467
1$
#23033931
0$
#23034610
1$
#23037074
0$
#23037753
1$
#23040216
0$
#23042108
1$
#23043360
0$
#23044037
1$
#23046502
0$
#23047177
1$
#23049645
0$
#23050319
1$
#23052789
0$
#23053460
1$
#23055929
0$
#23056600
1$
#23059072
0$
#23059743
1$
#23062205
0$
#23062883
1$
#23065350
0$
#23066027
1$
#23068492
0$
#23069170
1$
#23071636
0$
#23072310
1$
#23074780
0$
#23075454
1$
#23077918
0$
#23078596
1$
#23081060
0$
#23081736
1$
#23084202
0$
#23084881
1$
#23087350
0$
#23088030
1$
#23090491
0$
#23092385
1$
#23093633
0$
#23094309
1$
#23096775
0$
#23097450
1$
#23099916
0$
#23100593
1$
#23103059
0$
#23104953
1$
#23895929
0$
#23897819
1$
#23899072
0$
#23899745
1$
#23902213
0$
#23902886
1$
#23905358
0$
#23907247
1$
#23908495
0$
#23910387
1$
#23911637
0$
#23912317
1$
#23914781
0$
#23915454
1$
#23917923
0$
#23919814
1$
#23921066
0$
#23921742
1$
#23924201
0$
#23926098
1$
#23927351
0$
#23928028
1$
#23930491
0$
#23931167
1$
#23933634
0$
#23934311
1$
#23936779
0$
#23937451
1$
#23939914
0$
#23940591
1$
#23943055
0$
#23943734
1$
#23946200
0$
#23946877
1$
#23949341
0$
#23951233
1$
#23952484
0$
#23953163
1$
#23955626
0$
#23956303
1$
#23958766
0$
#23959443
1$
#23961911
0$
#23962585
1$
#23965052
0$
#23965728
1$
#23968191
0$
#23968868
1$
#23971329
0$
#23972009
1$
#23974474
0$
#23975151
1$
#23977617
0$
#23978292
1$
#23980760
0$
#23982647
1$
#23983897
0$
#23984574
1$
#23987040
0$
#23987717
1$
#23990183
0$
#23990859
1$
#23993329
0$
#23994003
1$
#23996464
0$
#23997143
1$
#23999606
0$
#24000283
1$
#24002749
0$
#24004641
1$
#24005890
0$
#24006569
1$
#24009033
0$
#24009706
1$
#24012173
0$
#24012852
1$
#24015317
0$
#24017214
1$
#24018457
0$
#24020349
1$
#24021601
0$
#24022278
1$
#24024745
0$
#24025414
1$
#24027879
0$
#24029774
1$
#24031022
0$
#24031701
1$
#24034166
0$
#24034842
1$
#24037308
0$
#24037987
1$
#24040458
0$
#24041132
1$
#24043594
0$
#24044274
1$
#24046736
0$
#24047418
1$
#24049876
0$
#24050554
1$
#24053018
0$
#24053691
1$
#24056163
0$
#24056839
1$
#24059308
0$
#24059982
1$
#24062448
0$
#24063125
1$
#24065585
0$
#24066264
1$
#24068730
0$
#24069405
1$
#24071868
0$
#24072548
1$
#24075009
0$
#24075685
1$
#24078154
0$
#24078831
1$
#24081295
0$
#24083187
1$
#24084435
0$
#24085112
1$
#24087575
0$
#24089468
1$
#24090718
0$
#24091395
1$
#24093855
0$
#24094532
1$
#24896599
0$
#24898487
1$
#24899744
0$
#24900410
1$
#24902882
0$
#24903556
1$
#24906020
0$
#24907911
1$
#24909160
0$
#24911057
1$
#24912302
0$
#24912975
1$
#24915445
0$
#24916122
1$
#24918587
0$
#24920479
1$
#24921729
0$
#24922406
1$
#24924870
0$
#24926759
1$
#24928013
0$
#24928689
1$
#24931155
0$
#24931831
1$
#24934291
0$
#24934970
1$
#24937434
0$
#24938113
1$
#24940576
0$
#24941250
1$
#24943722
0$
#24944393
1$
#24946859
0$
#24947533
1$
#24949999
0$
#24951892
1$
#24953146
0$
#24953819
1$
#24956288
0$
#24956961
1$
#24959430
0$
#24960103
1$
#24962565
0$
#24963242
1$
#24965710
0$
#24966387
1$
#24968850
0$
#24969525
1$
#24971993
0$
#24972669
1$
#24975135
0$
#24975809
1$
#24978278
0$
#24978955
1$
#24981418
0$
#24983308
1$
#24984561
0$
#24985237
1$
#24987703
0$
#24988378
1$
#24990847
0$
#24991521
1$
#24993987
0$
#24994660
1$
#24997125
0$
#24997803
1$
#25000269
0$
#25000945
1$
#25003412
0$
#25005301
1$
#25006553
0$
#25007227
1$
#25009697
0$
#25010369
1$
#25012834
0$
#25013511
1$
#25015978
0$
#25017870
1$
#25019121
0$
#25021011
1$
#25022259
0$
#25022934
1$
#25025402
0$
#25026076
1$
#25028542
0$
#25030433
1$
#25031684
0$
#25033576
1$
#25034827
0$
#25035502
1$
#25037968
0$
#25038647
1$
#25041111
0$
#25041787
1$
#25044249
0$
#25044927
1$
#25047394
0$
#25048068
1$
#25050531
0$
#25051211
1$
#25053680
0$
#25054354
1$
#25056823
0$
#25057497
1$
#25059968
0$
#25060640
1$
#25063104
0$
#25063782
1$
#25066244
0$
#25066920
1$
#25069386
0$
#25070061
1$
#25072532
0$
#25073203
1$
#25075674
0$
#25076346
1$
#25078814
0$
#25079489
1$
#25081955
0$
#25083845
1$
#25085101
0$
#25085771
1$
#25088236
0$
#25088910
1$
#25091379
0$
#25093274
1$
#25094521
0$
#25096413
1$
#25901572
0$
#25903459
1$
#25904714
0$
#25905391
1$
#25907858
0$
#25908529
1$
#25911001
0$
#25912889
1$
#25914135
0$
#25916027
1$
#25917283
0$
#25917961
1$
#25920426
0$
#25921102
1$
#25923571
0$
#25925460
1$
#25926713
0$
#25927389
1$
#25929848
0$
#25931743
1$
#25932988
0$
#25933670
1$
#25936136
0$
#25936812
1$
#25939276
0$
#25939952
1$
#25942419
0$
#25943096
1$
#25945561
0$
#25946235
1$
#25948702
0$
#25949379
1$
#25951845
0$
#25952524
1$
#25954987
0$
#25956880
1$
#25958128
0$
#25958804
1$
#25961273
0$
#25961947
1$
#25964410
0$
#25965088
1$
#25967551
0$
#25968230
1$
#25970696
0$
#25971372
1$
#25973835
0$
#25974513
1$
#25976979
0$
#25977658
1$
#25980121
0$
#25980800
1$
#25983263
0$
#25983940
1$
#25986404
0$
#25988296
1$
#25989549
0$
#25990226
1$
#25992694
0$
#25993367
1$
#25995833
0$
#25996509
1$
#25998975
0$
#25999654
1$
#26002113
0$
#26002792
1$
#26005256
0$
#26005934
1$
#26008398
0$
#26010290
1$
#26011538
0$
#26012215
1$
#26014681
0$
#26015357
1$
#26017825
0$
#26018502
1$
#26020966
0$
#26022858
1$
#26024109
0$
#26026001
1$
#26027248
0$
#26027925
1$
#26030387
0$
#26032284
1$
#26033529
0$
#26034208
1$
#26036679
0$
#26037350
1$
#26039812
0$
#26040489
1$
#26042954
0$
#26043631
1$
#26046098
0$
#26046771
1$
#26049241
0$
#26049922
1$
#26052376
0$
#26053058
1$
#26055518
0$
#26056198
1$
#26058664
0$
#26059340
1$
#26061809
0$
#26062480
1$
#26064953
0$
#26065626
1$
#26068095
0$
#26068768
1$
#26071232
0$
#26071910
1$
#26074375
0$
#26075052
1$
#26077516
0$
#26078195
1$
#26080666
0$
#26081335
1$
#26083809
0$
#26084491
1$
#26086950
0$
#26088839
1$
#26090088
0$
#26090766
1$
#26093230
0$
#26095126
1$
#26096381
0$
#26098267
1$
#26099518
0$
#26100197
1$
#26904108
0$
#26905995
1$
#26907248
0$
#26907922
1$
#26910397
0$
#26911076
1$
#26913539
0$
#26915426
1$
#26916674
0$
#26918568
1$
#26919816
0$
#26920495
1$
#26922959
0$
#26923633
1$
#26926102
0$
#26927993
1$
#26929244
0$
#26929923
1$
#26932385
0$
#26934277
1$
#26935525
0$
#26936202
1$
#26938668
0$
#26939342
1$
#26941806
0$
#26942490
1$
#26944949
0$
#26945623
1$
#26948089
0$
#26948765
1$
#26951232
0$
#26951908
1$
#26954377
0$
#26955054
1$
#26957512
0$
#26959405
1$
#26960653
0$
#26961330
1$
#26963798
0$
#26964475
1$
#26966938
0$
#26967616
1$
#26970079
0$
#26970758
1$
#26973222
0$
#26973898
1$
#26976364
0$
#26977042
1$
#26979508
0$
#26980184
1$
#26982650
0$
#26983324
1$
#26985792
0$
#26986470
1$
#26988938
0$
#26990830
1$
#26992083
0$
#26992760
1$
#26995226
0$
#26995903
1$
#26998367
0$
#26999044
1$
#27001507
0$
#27002184
1$
#27004648
0$
#27005324
1$
#27007789
0$
#27008469
1$
#27010932
0$
#27012824
1$
#27014077
0$
#27014748
1$
#27017219
0$
#27017893
1$
#27020362
0$
#27021041
1$
#27023497
0$
#27025394
1$
#27026642
0$
#27028534
1$
#27029781
0$
#27030458
1$
#27032922
0$
#27034817
1$
#27036065
0$
#27036743
1$
#27039207
0$
#27041099
1$
#27042348
0$
#27043022
1$
#27045488
0$
#27046167
1$
#27048638
0$
#27049309
1$
#27051771
0$
#27052450
1$
#27054914
0$
#27055593
1$
#27058056
0$
#27058736
1$
#27061200
0$
#27061876
1$
#27064345
0$
#27065022
1$
#27067485
0$
#27068158
1$
#27070625
0$
#27071299
1$
#27073767
0$
#27074447
1$
#27076910
0$
#27077587
1$
#27080053
0$
#27080727
1$
#27083190
0$
#27083869
1$
#27086330
0$
#27087008
1$
#27089479
0$
#27091368
1$
#27092618
0$
#27093292
1$
#27095758
0$
#27097651
1$
#27098901
0$
#27099573
1$
#27102039
0$
#27103931
1$
#27903541
0$
#27905434
1$
#27906684
0$
#27907357
1$
#27909825
0$
#27910496
1$
#27912962
0$
#27914854
1$
#27916099
0$
#27917993
1$
#27919247
0$
#27919917
1$
#27922385
0$
#27923061
1$
#27925530
0$
#27927419
1$
#27928667
0$
#27929343
1$
#27931810
0$
#27933702
1$
#27934953
0$
#27935629
1$
#27938093
0$
#27938769
1$
#27941234
0$
#27941910
1$
#27944377
0$
#27945054
1$
#27947522
0$
#27948196
1$
#27950665
0$
#27951337
1$
#27953800
0$
#27954477
1$
#27956943
0$
#27958833
1$
#27960081
0$
#27960760
1$
#27963226
0$
#27963905
1$
#27966369
0$
#27967044
1$
#27969507
0$
#27970184
1$
#27972644
0$
#27973326
1$
#27975787
0$
#27976467
1$
#27978930
0$
#27979612
1$
#27982076
0$
#27982749
1$
#27985215
0$
#27985892
1$
#27988359
0$
#27990251
1$
#27991496
0$
#27992175
1$
#27994641
0$
#27995316
1$
#27997779
0$
#27998459
1$
#28000919
0$
#28001601
1$
#28004066
0$
#28004741
1$
#28007208
0$
#28007884
1$
#28010348
0$
#28012242
1$
#28013491
0$
#28014165
1$
#28016633
0$
#28017310
1$
#28019775
0$
#28020449
1$
#28022911
0$
#28024808
1$
#28026056
0$
#28027947
1$
#28029198
0$
#28029877
1$
#28032346
0$
#28034238
1$
#28035491
0$
#28037386
1$
#28038631
0$
#28039311
1$
#28041775
0$
#28042454
1$
#28044917
0$
#28045594
1$
#28048060
0$
#28048733
1$
#28051206
0$
#28051879
1$
#28054345
0$
#28055024
1$
#28057488
0$
#28058163
1$
#28060631
0$
#28061305
1$
#28063773
0$
#28064450
1$
#28066916
0$
#28067593
1$
#28070057
0$
#28070730
1$
#28073197
0$
#28073873
1$
#28076342
0$
#28077017
1$
#28079480
0$
#28080159
1$
#28082620
0$
#28083296
1$
#28085762
0$
#28086440
1$
#28088908
0$
#28090800
1$
#28092048
0$
#28093940
1$
#28095191
0$
#28095867
1$
#28098331
0$
#28099005
1$
#28101474
0$
#28102151
1$
#28905443
0$
#28907331
1$
#28908583
0$
#28909255
1$
#28911725
0$
#28912398
1$
#28914864
0$
#28916756
1$
#28918007
0$
#28919901
1$
#28921152
0$
#28921828
1$
#28924293
0$
#28924969
1$
#28927433
0$
#28929325
1$
#28930575
0$
#28931252
1$
#28933718
0$
#28935610
1$
#28936863
0$
#28937540
1$
#28940006
0$
#28940682
1$
#28943149
0$
#28943823
1$
#28946289
0$
#28946965
1$
#28949434
0$
#28950108
1$
#28952572
0$
#28953257
1$
#28955718
0$
#28956394
1$
#28958860
0$
#28960748
1$
#28961996
0$
#28962672
1$
#28965139
0$
#28965815
1$
#28968279
0$
#28968956
1$
#28971422
0$
#28972096
1$
#28974564
0$
#28975241
1$
#28977707
0$
#28978382
1$
#28980848
0$
#28981522
1$
#28983985
0$
#28984665
1$
#28987126
0$
#28987805
1$
#28990272
0$
#28992163
1$
#28993414
0$
#28994093
1$
#28996554
0$
#28997234
1$
#28999697
0$
#29000374
1$
#29002840
0$
#29003516
1$
#29005983
0$
#29006656
1$
#29009125
0$
#29009796
1$
#29012260
0$
#29014157
1$
#29015401
0$
#29016080
1$
#29018543
0$
#29019225
1$
#29021685
0$
#29022362
1$
#29024829
0$
#29026716
1$
#29027971
0$
#29029858
1$
#29031112
0$
#29031785
1$
#29034250
0$
#29036142
1$
#29037393
0$
#29039282
1$
#29040538
0$
#29042427
1$
#29043676
0$
#29044353
1$
#29046816
0$
#29047490
1$
#29049953
0$
#29050632
1$
#29053094
0$
#29053773
1$
#29056239
0$
#29056915
1$
#29059381
0$
#29060056
1$
#29062522
0$
#29063199
1$
#29065664
0$
#29066339
1$
#29068807
0$
#29069482
1$
#29071943
0$
#29072622
1$
#29075086
0$
#29075764
1$
#29078228
0$
#29078906
1$
#29081372
0$
#29082046
1$
#29084519
0$
#29085193
1$
#29087664
0$
#29088337
1$
#29090808
0$
#29092697
1$
#29093950
0$
#29094624
1$
#29097093
0$
#29098983
1$
#29100235
0$
#29102127
1$
#29103380
0$
#29105266
1$
#29896248
0$
#29898140
1$
#29899390
0$
#29900067
1$
#29902536
0$
#29903213
1$
#29905676
0$
#29907565
1$
#29908813
0$
#29910708
1$
#29911955
0$
#29912632
1$
#29915100
0$
#29915779
1$
#29918240
0$
#29920129
1$
#29921377
0$
#29922059
1$
#29924523
0$
#29926412
1$
#29927660
0$
#29928339
1$
#29930802
0$
#29931484
1$
#29933945
0$
#29934622
1$
#29937089
0$
#29937765
1$
#29940231
0$
#29940907
1$
#29943372
0$
#29944049
1$
#29946512
0$
#29947189
1$
#29949657
0$
#29951553
1$
#29952800
0$
#29953474
1$
#29955940
0$
#29956619
1$
#29959078
0$
#29959755
1$
#29962219
0$
#29962900
1$
#29965364
0$
#29966041
1$
#29968504
0$
#29969179
1$
#29971642
0$
#29972318
1$
#29974787
0$
#29975464
1$
#29977933
0$
#29978605
1$
#29981072
0$
#29982966
1$
#29984215
0$
#29984899
1$
#29987354
0$
#29988034
1$
#29990500
0$
#29991177
1$
#29993642
0$
#29994322
1$
#29996779
0$
#29997460
1$
#29999920
0$
#30000602
1$
#30003064
0$
#30004960
1$
#30006209
0$
#30006886
1$
#30009352
0$
#30010028
1$
#30012491
0$
#30013168
1$
#30015632
0$
#30017529
1$
#30018774
0$
#30020666
1$
#30021911
0$
#30023803
1$
#30025056
0$
#30025731
1$
#30028198
0$
#30028874
1$
#30031338
0$
#30032017
1$
#30034481
0$
#30035154
1$
#30037622
0$
#30038299
1$
#30040768
0$
#30041439
1$
#30043908
0$
#30044585
1$
#30047054
0$
#30047730
1$
#30050199
0$
#30050876
1$
#30053337
0$
#30054016
1$
#30056482
0$
#30057156
1$
#30059621
0$
#30060301
1$
#30062767
0$
#30063447
1$
#30065907
0$
#30066586
1$
#30069050
0$
#30069730
1$
#30072194
0$
#30072870
1$
#30075336
0$
#30076011
1$
#30078476
0$
#30079151
1$
#30081617
0$
#30083509
1$
#30084762
0$
#30086656
1$
#30087904
0$
#30088579
1$
#30091040
0$
#30092937
1$
#30094183
0$
#30094864
1$
#30906171
0$
#30908059
1$
#30909311
0$
#30909987
1$
#30912455
0$
#30913131
1$
#30915597
0$
#30917484
1$
#30918732
0$
#30920624
1$
#30921875
0$
#30922549
1$
#30925016
0$
#30925692
1$
#30928158
0$
#30930047
1$
#30931295
0$
#30931971
1$
#30934439
0$
#30936328
1$
#30937578
0$
#30938252
1$
#30940721
0$
#30941397
1$
#30943866
0$
#30944540
1$
#30947009
0$
#30947682
1$
#30950151
0$
#30950827
1$
#30953292
0$
#30953973
1$
#30956437
0$
#30957111
1$
#30959584
0$
#30961472
1$
#30962727
0$
#30963401
1$
#30965862
0$
#30966543
1$
#30969005
0$
#30969682
1$
#30972148
0$
#30972827
1$
#30975291
0$
#30975966
1$
#30978435
0$
#30979105
1$
#30981573
0$
#30982250
1$
#30984715
0$
#30985390
1$
#30987860
0$
#30988538
1$
#30991004
0$
#30992901
1$
#30994149
0$
#30994823
1$
#30997292
0$
#30997969
1$
#31000431
0$
#31001110
1$
#31003573
0$
#31004247
1$
#31006716
0$
#31007389
1$
#31009857
0$
#31010539
1$
#31013001
0$
#31014892
1$
#31016139
0$
#31016818
1$
#31019284
0$
#31019963
1$
#31022427
0$
#31023101
1$
#31025563
0$
#31027457
1$
#31028708
0$
#31030599
1$
#31031850
0$
#31033744
1$
#31034993
0$
#31035670
1$
#31038133
0$
#31038809
1$
#31041275
0$
#31043165
1$
#31044422
0$
#31045093
1$
#31047559
0$
#31048233
1$
#31050696
0$
#31051375
1$
#31053844
0$
#31054521
1$
#31056982
0$
#31057659
1$
#31060125
0$
#31060802
1$
#31063266
0$
#31063942
1$
#31066410
0$
#31067087
1$
#31069550
0$
#31070225
1$
#31072693
0$
#31073365
1$
#31075828
0$
#31076507
1$
#31078970
0$
#31079648
1$
#31082114
0$
#31082790
1$
#31085257
0$
#31085933
1$
#31088407
0$
#31089077
1$
#31091540
0$
#31093435
1$
#31094682
0$
#31096572
1$
#31097825
0$
#31098498
1$
#31100968
0$
#31101640
1$
#31104104
0$
#31105997
1$
#31897597
0$
#31899480
1$
#31900738
0$
#31901409
1$
#31903874
0$
#31904548
1$
#31907022
0$
#31908911
1$
#31910164
0$
#31912054
1$
#31913310
0$
#31913981
1$
#31916448
0$
#31917124
1$
#31919585
0$
#31921477
1$
#31922728
0$
#31923405
1$
#31925869
0$
#31927761
1$
#31929012
0$
#31929691
1$
#31932155
0$
#31932831
1$
#31935295
0$
#31935971
1$
#31938437
0$
#31939114
1$
#31941580
0$
#31942256
1$
#31944715
0$
#31945395
1$
#31947858
0$
#31948535
1$
#31951001
0$
#31952894
1$
#31954145
0$
#31954821
1$
#31957285
0$
#31957961
1$
#31960427
0$
#31961105
1$
#31963568
0$
#31964245
1$
#31966713
0$
#31967385
1$
#31969848
0$
#31970528
1$
#31972991
0$
#31973668
1$
#31976132
0$
#31976810
1$
#31979274
0$
#31979951
1$
#31982417
0$
#31984307
1$
#31985560
0$
#31986233
1$
#31988697
0$
#31989377
1$
#31991840
0$
#31992516
1$
#31994980
0$
#31995659
1$
#31998123
0$
#31998799
1$
#32001265
0$
#32001938
1$
#32004407
0$
#32006304
1$
#32007551
0$
#32008225
1$
#32010693
0$
#32011367
1$
#32013835
0$
#32015727
1$
#32016981
0$
#32017660
1$
#32020122
0$
#32020798
1$
#32023267
0$
#32023938
1$
#32026405
0$
#32027082
1$
#32029547
0$
#32030222
1$
#32032685
0$
#32033362
1$
#32035834
0$
#32036505
1$
#32038968
0$
#32039647
1$
#32042113
0$
#32042787
1$
#32045252
0$
#32045930
1$
#32048394
0$
#32049070
1$
#32051536
0$
#32052211
1$
#32054680
0$
#32055354
1$
#32057817
0$
#32058493
1$
#32060959
0$
#32061637
1$
#32064098
0$
#32064774
1$
#32067240
0$
#32067919
1$
#32070385
0$
#32071063
1$
#32073524
0$
#32074200
1$
#32076663
0$
#32077345
1$
#32079805
0$
#32080483
1$
#32082946
0$
#32084838
1$
#32086089
0$
#32086765
1$
#32089226
0$
#32091119
1$
#32092372
0$
#32094267
1$
#32095512
0$
#32097412
1$
#32905645
0$
#32907538
1$
#32908790
0$
#32909464
1$
#32911939
0$
#32912610
1$
#32915082
0$
#32916968
1$
#32918219
0$
#32920108
1$
#32921361
0$
#32922040
1$
#32924504
0$
#32925181
1$
#32927646
0$
#32929538
1$
#32930789
0$
#32931462
1$
#32933926
0$
#32935818
1$
#32937067
0$
#32937746
1$
#32940212
0$
#32940888
1$
#32943358
0$
#32944037
1$
#32946500
0$
#32947174
1$
#32949635
0$
#32950312
1$
#32952778
0$
#32953455
1$
#32955923
0$
#32956605
1$
#32959066
0$
#32960961
1$
#32962205
0$
#32962884
1$
#32965347
0$
#32966026
1$
#32968497
0$
#32969172
1$
#32971643
0$
#32972317
1$
#32974788
0$
#32975457
1$
#32977920
0$
#32978600
1$
#32981062
0$
#32981738
1$
#32984204
0$
#32984878
1$
#32987347
0$
#32988019
1$
#32990488
0$
#32992377
1$
#32993623
0$
#32994299
1$
#32996767
0$
#32997442
1$
#32999911
0$
#33000585
1$
#33003053
0$
#33003737
1$
#33006197
0$
#33006875
1$
#33009338
0$
#33010015
1$
#33012478
0$
#33014372
1$
#33015621
0$
#33016298
1$
#33018766
0$
#33019440
1$
#33021908
0$
#33023798
1$
#33025048
0$
#33025721
1$
#33028188
0$
#33028869
1$
#33031335
0$
#33032009
1$
#33034476
0$
#33035150
1$
#33037613
0$
#33038289
1$
#33040755
0$
#33042647
1$
#33043898
0$
#33044575
1$
#33047039
0$
#33047720
1$
#33050181
0$
#33050860
1$
#33053325
0$
#33054001
1$
#33056467
0$
#33057139
1$
#33059608
0$
#33060283
1$
#33062743
0$
#33063422
1$
#33065888
0$
#33066565
1$
#33069029
0$
#33069706
1$
#33072172
0$
#33072843
1$
#33075312
0$
#33075985
1$
#33078454
0$
#33079131
1$
#33081597
0$
#33082273
1$
#33084737
0$
#33085413
1$
#33087884
0$
#33088557
1$
#33091020
0$
#33092912
1$
#33094163
0$
#33096055
1$
#33097303
0$
#33097980
1$
#33100447
0$
#33101124
1$
#33103587
0$
#33104264
1$
#33877639
0$
#33878315
1$
#33880753
0$
#33881430
1$
#33883845
0$
#33884522
1$
#33886936
0$
#33888820
1$
#33890029
0$
#33890705
1$
#33893118
0$
#33893796
1$
#33896209
0$
#33896885
1$
#33899298
0$
#33901179
1$
