target_desktop/captures/toggles/app_demo2_toggles.vcd
$date
   2016-03-18 15:40
$end
$version
   generated by /home/tulth/projects/acura_bluetooth/diy-acura-bluetooth/target_desktop/py_lib/mbus/toggles/__init__.py
$end
$comment
   generated by /home/tulth/projects/acura_bluetooth/diy-acura-bluetooth/target_desktop/py_lib/mbus/toggles/__init__.py
$end
$timescale 1us $end
$scope module logic $end
$var wire 1 $ mbus $end
$upscope $end
$enddefinitions $end
$dumpvars
x$
$end
#2250084
1$
#3050349
0$
#3051027
1$
#3053446
0$
#3054122
1$
#3056530
0$
#3057215
1$
#3059623
0$
#3061501
1$
#3062712
0$
#3064600
1$
#3065806
0$
#3066482
1$
#3068891
0$
#3069597
1$
#3071987
0$
#3072661
1$
#3075076
0$
#3076952
1$
#3078161
0$
#3078843
1$
#3081254
0$
#3083133
1$
#3084350
0$
#3085024
1$
#3091530
0$
#3093420
1$
#3094631
0$
#3095316
1$
#3097736
0$
#3098418
1$
#3100838
0$
#3102730
1$
#3103956
0$
#3105848
1$
#3107060
0$
#3107742
1$
#3110164
0$
#3110847
1$
#3113267
0$
#3113950
1$
#3116385
0$
#3117060
1$
#3119490
0$
#3120173
1$
#3122592
0$
#3124485
1$
#3125696
0$
#3126378
1$
#3131882
0$
#3132570
1$
#3134981
0$
#3135655
1$
#3138066
0$
#3138748
1$
#3141159
0$
#3143052
1$
#3144248
0$
#3144932
1$
#3147342
0$
#3148018
1$
#3150426
0$
#3151103
1$
#3153520
0$
#3155413
1$
#3156609
0$
#3157296
1$
#3159704
0$
#3160378
1$
#3162797
0$
#3163474
1$
#3165882
0$
#3167768
1$
#3168981
0$
#3170857
1$
#3172066
0$
#3172740
1$
#3175150
0$
#3175834
1$
#3178244
0$
#3178918
1$
#3181329
0$
#3182007
1$
#3184426
0$
#3185103
1$
#3187540
0$
#3188215
1$
#3190634
0$
#3192532
1$
#3193722
0$
#3195601
1$
#3196806
0$
#3197482
1$
#3199901
0$
#3200577
1$
#3202987
0$
#3204877
1$
#3584011
0$
#3584687
1$
#3587098
0$
#3587771
1$
#3590183
0$
#3590865
1$
#3593276
0$
#3595154
1$
#3596365
0$
#3598243
1$
#3599459
0$
#3600135
1$
#3602544
0$
#3603220
1$
#3605638
0$
#3607516
1$
#3608726
0$
#3610605
1$
#3611822
0$
#3612496
1$
#3614905
0$
#3615581
1$
#3617992
0$
#3619876
1$
#3626385
0$
#3628275
1$
#3629485
0$
#3630171
1$
#3632590
0$
#3633273
1$
#3635692
0$
#3637584
1$
#3638810
0$
#3640702
1$
#3641911
0$
#3642596
1$
#3645018
0$
#3646919
1$
#3648119
0$
#3648802
1$
#3651238
0$
#3651921
1$
#3654342
0$
#3655025
1$
#3657445
0$
#3658130
1$
#3660550
0$
#3661232
1$
#3663665
0$
#3664339
1$
#3666770
0$
#3667455
1$
#3669872
0$
#3670558
1$
#3672979
0$
#3673662
1$
#3676098
0$
#3676778
1$
#3679200
0$
#3679883
1$
#3682305
0$
#3682988
1$
#3685407
0$
#3686093
1$
#3688526
0$
#3689200
1$
#3691628
0$
#3692313
1$
#3694733
0$
#3695418
1$
#3697835
0$
#3698520
1$
#3700956
0$
#3701628
1$
#3704061
0$
#3704741
1$
#3707163
0$
#3707846
1$
#3710268
0$
#3710951
1$
#3713384
0$
#3714058
1$
#3716488
0$
#3717173
1$
#3719591
0$
#3720276
1$
#3722695
0$
#3723381
1$
#3725814
0$
#3726496
1$
#3728916
0$
#3729601
1$
#3732024
0$
#3732704
1$
#3735126
0$
#3735809
1$
#3738244
0$
#3738927
1$
#3741347
0$
#3742033
1$
#3744452
0$
#3745137
1$
#3747555
0$
#3748240
1$
#3750673
0$
#3751347
1$
#3753778
0$
#3754460
1$
#3756880
0$
#3757565
1$
#3759987
0$
#3760667
1$
#3763103
0$
#3763786
1$
#3766208
0$
#3766891
1$
#3769310
0$
#3769996
1$
#3772415
0$
#3773101
1$
#3775534
0$
#3776217
1$
#3778636
0$
#3780528
1$
#3781739
0$
#3782422
1$
#3784841
0$
#3785526
1$
#5619139
0$
#5619825
1$
#5622235
0$
#5622912
1$
#5625320
0$
#5626006
1$
#5628413
0$
#5630292
1$
#5631502
0$
#5633391
1$
#5634596
0$
#5635273
1$
#5637681
0$
#5638357
1$
#5640774
0$
#5642652
1$
#5643865
0$
#5645741
1$
#5646951
0$
#5647633
1$
#5650045
0$
#5650718
1$
#5653129
0$
#5655016
1$
#7618763
0$
#7619438
1$
#7621850
0$
#7622523
1$
#7624944
0$
#7625622
1$
#7628028
0$
#7629920
1$
#7631126
0$
#7633005
1$
#7634239
0$
#7634916
1$
#7637324
0$
#7638001
1$
#7640418
0$
#7641094
1$
#7643507
0$
#7645395
1$
#7646602
0$
#7647276
1$
#7649695
0$
#7651574
1$
#7652783
0$
#7653454
1$
#7659964
0$
#7661854
1$
#7663065
0$
#7663750
1$
#7666170
0$
#7666852
1$
#7669272
0$
#7671164
1$
#7672389
0$
#7674282
1$
#7675491
0$
#7676176
1$
#7678595
0$
#7679281
1$
#7681698
0$
#7682383
1$
#7684819
0$
#7685502
1$
#7687924
0$
#7688604
1$
#7691027
0$
#7692919
1$
#7694129
0$
#7694812
1$
#7700315
0$
#7701004
1$
#7703412
0$
#7704088
1$
#7706496
0$
#7707201
1$
#7709590
0$
#7711482
1$
#7712688
0$
#7714567
1$
#7715775
0$
#7716459
1$
#7718870
0$
#7719543
1$
#7721953
0$
#7723831
1$
#7725042
0$
#7726930
1$
#7728137
0$
#7728812
1$
#7731221
0$
#7731907
1$
#7734316
0$
#7736206
1$
#9680646
0$
#9681332
1$
#9683743
0$
#9684416
1$
#9686827
0$
#9687505
1$
#9689920
0$
#9691798
1$
#9693009
0$
#9694887
1$
#9696103
0$
#9696779
1$
#9699188
0$
#9699874
1$
#9702281
0$
#9704159
1$
#9705370
0$
#9707248
1$
#9708455
0$
#9709160
1$
#9711549
0$
#9712225
1$
#9714636
0$
#9716520
1$
#9723029
0$
#9724918
1$
#9726129
0$
#9726814
1$
#9729234
0$
#9729917
1$
#9732336
0$
#9734228
1$
#9735453
0$
#9737345
1$
#9738554
0$
#9739239
1$
#9741661
0$
#9743551
1$
#9744762
0$
#9745445
1$
#9747880
0$
#9748563
1$
#9750985
0$
#9751668
1$
#9754088
0$
#9754773
1$
#9757192
0$
#9757875
1$
#9760308
0$
#9760982
1$
#9763412
0$
#9764098
1$
#9766515
0$
#9767200
1$
#9769620
0$
#9770305
1$
#9772741
0$
#9773421
1$
#9775843
0$
#9776526
1$
#9778948
0$
#9779631
1$
#9782050
0$
#9782735
1$
#9785169
0$
#9785843
1$
#9788271
0$
#9788956
1$
#9791375
0$
#9792061
1$
#9794478
0$
#9795164
1$
#9797597
0$
#9798271
1$
#9800703
0$
#9801384
1$
#9803806
0$
#9804489
1$
#9806910
0$
#9807591
1$
#9810027
0$
#9810700
1$
#9813130
0$
#9813816
1$
#9816233
0$
#9816919
1$
#9819338
0$
#9820024
1$
#9822457
0$
#9823140
1$
#9825559
0$
#9826244
1$
#9828666
0$
#9829346
1$
#9831768
0$
#9832451
1$
#9834887
0$
#9835570
1$
#9837989
0$
#9838675
1$
#9841094
0$
#9841780
1$
#9844197
0$
#9844883
1$
#9847316
0$
#9847990
1$
#9850420
0$
#9851103
1$
#9853523
0$
#9854208
1$
#9856630
0$
#9857310
1$
#9859746
0$
#9860429
1$
#9862851
0$
#9863534
1$
#9865953
0$
#9866639
1$
#9869059
0$
#9869744
1$
#9872177
0$
#9872859
1$
#9875279
0$
#9877171
1$
#9878382
0$
#9879065
1$
#9881484
0$
#9882169
1$
#11715764
0$
#11716440
1$
#11718851
0$
#11719537
1$
#11721945
0$
#11722620
1$
#11725039
0$
#11726917
1$
#11728128
0$
#11730007
1$
#11731212
0$
#11731888
1$
#11734307
0$
#11734983
1$
#11737391
0$
#11739283
1$
#11740490
0$
#11742368
1$
#11743578
0$
#11744260
1$
#11746671
0$
#11747345
1$
#11749756
0$
#11751646
1$
#13735877
0$
#13736555
1$
#13738964
0$
#13739639
1$
#13742078
0$
#13742753
1$
#13745161
0$
#13747069
1$
#13748260
0$
#13750138
1$
#13751344
0$
#13752020
1$
#13754441
0$
#13755115
1$
#13757525
0$
#13758213
1$
#13760624
0$
#13762502
1$
#13763709
0$
#13764392
1$
#13766803
0$
#13768681
1$
#13769898
0$
#13770572
1$
#13777079
0$
#13778969
1$
#13780179
0$
#13780865
1$
#13783284
0$
#13783967
1$
#13786386
0$
#13788279
1$
#13789506
0$
#13791396
1$
#13792607
0$
#13793290
1$
#13795712
0$
#13796395
1$
#13798814
0$
#13799500
1$
#13801933
0$
#13802607
1$
#13805037
0$
#13805720
1$
#13808139
0$
#13810032
1$
#13811242
0$
#13811925
1$
#13816828
0$
#13817506
1$
#13819915
0$
#13820591
1$
#13823030
0$
#13823715
1$
#13826123
0$
#13828022
1$
#13829212
0$
#13831091
1$
#13832306
0$
#13832983
1$
#13835391
0$
#13836067
1$
#13838487
0$
#13840363
1$
#13841576
0$
#13843454
1$
#13844671
0$
#13845343
1$
#13847754
0$
#13848430
1$
#13850849
0$
#13852739
1$
#15776696
0$
#15777374
1$
#15779782
0$
#15780458
1$
#15782877
0$
#15783552
1$
#15785960
0$
#15787853
1$
#15789050
0$
#15790938
1$
#15792143
0$
#15792819
1$
#15795238
0$
#15795915
1$
#15798324
0$
#15800210
1$
#15801423
0$
#15803299
1$
#15804508
0$
#15805191
1$
#15807601
0$
#15808275
1$
#15810686
0$
#15812572
1$
#15819079
0$
#15820969
1$
#15822180
0$
#15822865
1$
#15825285
0$
#15825968
1$
#15828389
0$
#15830290
1$
#15831507
0$
#15833399
1$
#15834608
0$
#15835291
1$
#15837713
0$
#15839605
1$
#15840814
0$
#15841499
1$
#15843932
0$
#15844606
1$
#15847037
0$
#15847719
1$
#15850139
0$
#15850824
1$
#15853244
0$
#15853926
1$
#15856362
0$
#15857045
1$
#15859467
0$
#15860150
1$
#15862570
0$
#15863253
1$
#15865675
0$
#15866360
1$
#15868793
0$
#15869476
1$
#15871896
0$
#15872581
1$
#15875001
0$
#15875683
1$
#15878103
0$
#15878788
1$
#15881221
0$
#15881895
1$
#15884326
0$
#15885009
1$
#15887431
0$
#15888114
1$
#15890533
0$
#15891216
1$
#15893652
0$
#15894326
1$
#15896756
0$
#15897439
1$
#15899859
0$
#15900544
1$
#15902963
0$
#15903646
1$
#15906079
0$
#15906753
1$
#15909184
0$
#15909869
1$
#15912286
0$
#15912972
1$
#15915393
0$
#15916077
1$
#15918512
0$
#15919192
1$
#15921614
0$
#15922297
1$
#15924719
0$
#15925401
1$
#15927821
0$
#15928506
1$
#15930940
0$
#15931614
1$
#15934042
0$
#15934727
1$
#15937147
0$
#15937832
1$
#15940249
0$
#15940935
1$
#15943370
0$
#15944053
1$
#15946475
0$
#15947155
1$
#15949577
0$
#15950260
1$
#15952682
0$
#15953365
1$
#15955798
0$
#15956472
1$
#15958902
0$
#15959587
1$
#15962005
0$
#15962690
1$
#15965110
0$
#15965796
1$
#15968229
0$
#15968912
1$
#15971334
0$
#15973234
1$
#15974437
0$
#15975117
1$
#15977539
0$
#15978222
1$
