target_desktop/captures/toggles/app_demo_toggles.vcd
$date
   2016-03-18 12:39
$end
$version
   generated by /home/tulth/projects/acura_bluetooth/diy-acura-bluetooth/target_desktop/py_lib/mbus/toggles/__init__.py
$end
$comment
   generated by /home/tulth/projects/acura_bluetooth/diy-acura-bluetooth/target_desktop/py_lib/mbus/toggles/__init__.py
$end
$timescale 1us $end
$scope module logic $end
$var wire 1 $ mbus $end
$upscope $end
$enddefinitions $end
$dumpvars
x$
$end
#2250083
1$
#2576902
0$
#2577576
1$
#2579995
0$
#2580665
1$
#2583084
0$
#2583765
1$
#2586171
0$
#2588060
1$
#2589267
0$
#2591141
1$
#2592349
0$
#2593030
1$
#2595446
0$
#2596119
1$
#2598535
0$
#2599208
1$
#2601622
0$
#2603498
1$
#2604716
0$
#2605389
1$
#2607805
0$
#2609680
1$
#2610896
0$
#2611569
1$
#2617935
0$
#2619825
1$
#2621041
0$
#2621718
1$
#2624151
0$
#2624828
1$
#2627258
0$
#2629156
1$
#2630373
0$
#2632272
1$
#2633474
0$
#2634152
1$
#2636582
0$
#2637262
1$
#2639692
0$
#2640372
1$
#2642809
0$
#2643491
1$
#2645910
0$
#2646590
1$
#2649012
0$
#2650907
1$
#2652121
0$
#2652798
1$
#2658302
0$
#2658976
1$
#2661393
0$
#2662066
1$
#2664481
0$
#2665154
1$
#2667589
0$
#2669478
1$
#2670674
0$
#2672580
1$
#2673767
0$
#2674449
1$
#2676854
0$
#2677537
1$
#2679943
0$
#2681828
1$
#2683036
0$
#2684921
1$
#2686131
0$
#2686801
1$
#2689220
0$
#2689890
1$
#2692307
0$
#2694196
1$
#4638036
0$
#4638719
1$
#4641128
0$
#4641808
1$
#4644217
0$
#4644900
1$
#4647305
0$
#4649191
1$
#4650403
0$
#4652278
1$
#4653487
0$
#4654168
1$
#4656575
0$
#4657258
1$
#4659675
0$
#4661550
1$
#4662758
0$
#4664635
1$
#4665857
0$
#4666548
1$
#4668936
0$
#4669617
1$
#4672036
0$
#4673911
1$
#4680269
0$
#4682164
1$
#4683370
0$
#4684052
1$
#4686477
0$
#4687159
1$
#4689582
0$
#4691475
1$
#4692706
0$
#4694599
1$
#4695816
0$
#4696495
1$
#4698922
0$
#4700813
1$
#4702032
0$
#4702712
1$
#4705147
0$
#4705829
1$
#4708256
0$
#4708938
1$
#4711363
0$
#4712046
1$
#4714468
0$
#4715150
1$
#4717588
0$
#4718271
1$
#4720695
0$
#4721375
1$
#4723800
0$
#4724482
1$
#4726909
0$
#4727589
1$
#4730025
0$
#4730706
1$
#4733134
0$
#4733813
1$
#4736241
0$
#4736923
1$
#4739346
0$
#4740028
1$
#4742466
0$
#4743149
1$
#4745574
0$
#4746253
1$
#4748678
0$
#4749360
1$
#4751785
0$
#4752467
1$
#4754902
0$
#4755584
1$
#4758012
0$
#4758691
1$
#4761119
0$
#4761798
1$
#4764224
0$
#4764905
1$
#4767344
0$
#4768026
1$
#4770452
0$
#4771131
1$
#4773556
0$
#4774238
1$
#4776663
0$
#4777345
1$
#4779778
0$
#4780462
1$
#4782879
0$
#4783559
1$
#4785986
0$
#4786666
1$
#4789091
0$
#4789771
1$
#4792212
0$
#4792893
1$
#4795319
0$
#4795998
1$
#4798424
0$
#4799106
1$
#4801531
0$
#4802213
1$
#4804646
0$
#4805330
1$
#4807755
0$
#4808437
1$
#4810864
0$
#4811544
1$
#4813969
0$
#4814649
1$
#4817090
0$
#4817770
1$
#4820198
0$
#4820876
1$
#4823302
0$
#4823984
1$
#4826409
0$
#4827091
1$
#4829524
0$
#4830208
1$
#4832633
0$
#4834526
1$
#4835743
0$
#4836425
1$
#4838850
0$
#4839530
1$
#6673129
0$
#6673803
1$
#6676220
0$
#6676893
1$
#6679309
0$
#6679982
1$
#6682397
0$
#6684287
1$
#6685505
0$
#6687381
1$
#6688600
0$
#6689271
1$
#6691687
0$
#6692361
1$
#6694780
0$
#6696653
1$
#6697863
0$
#6699750
1$
#6700959
0$
#6701639
1$
#6704049
0$
#6704729
1$
#6707137
0$
#6709027
1$
#8693257
0$
#8693932
1$
#8696349
0$
#8697022
1$
#8699458
0$
#8700141
1$
#8702546
0$
#8704452
1$
#8705646
0$
#8707530
1$
#8708741
0$
#8709410
1$
#8711829
0$
#8712499
1$
#8714918
0$
#8715603
1$
#8718007
0$
#8719884
1$
#8721094
0$
#8721776
1$
#8724194
0$
#8726069
1$
#8727276
0$
#8727963
1$
#8734259
0$
#8736153
1$
#8737359
0$
#8738041
1$
#8740466
0$
#8741148
1$
#8743571
0$
#8745464
1$
#8746687
0$
#8748577
1$
#8749796
0$
#8750474
1$
#8752901
0$
#8753581
1$
#8756009
0$
#8756690
1$
#8759124
0$
#8759807
1$
#8762233
0$
#8762914
1$
#8765339
0$
#8767232
1$
#8768447
0$
#8769129
1$
#8774617
0$
#8775291
1$
#8777701
0$
#8778382
1$
#8780791
0$
#8781471
1$
#8783879
0$
#8785764
1$
#8786976
0$
#8788852
1$
#8790061
0$
#8790743
1$
#8793149
0$
#8793832
1$
#8796239
0$
#8798125
1$
#8799332
0$
#8801210
1$
#8802419
0$
#8803102
1$
#8805519
0$
#8806192
1$
#8808607
0$
#8810497
1$
#10734453
0$
#10735129
1$
#10737537
0$
#10738218
1$
#10740637
0$
#10741307
1$
#10743725
0$
#10745601
1$
#10746813
0$
#10748688
1$
#10749897
0$
#10750579
1$
#10752996
0$
#10753669
1$
#10756086
0$
#10757975
1$
#10759180
0$
#10761057
1$
#10762266
0$
#10762938
1$
#10765355
0$
#10766038
1$
#10768443
0$
#10770329
1$
#10776700
0$
#10778595
1$
#10779801
0$
#10780481
1$
#10782908
0$
#10783590
1$
#10786014
0$
#10787906
1$
#10789127
0$
#10791020
1$
#10792236
0$
#10792915
1$
#10795341
0$
#10797233
1$
#10798450
0$
#10799132
1$
#10801568
0$
#10802249
1$
#10804677
0$
#10805356
1$
#10807784
0$
#10808463
1$
#10810888
0$
#10811571
1$
#10814009
0$
#10814691
1$
#10817117
0$
#10817796
1$
#10820221
0$
#10820903
1$
#10823328
0$
#10824011
1$
#10826444
0$
#10827128
1$
#10829544
0$
#10830224
1$
#10832651
0$
#10833331
1$
#10835756
0$
#10836436
1$
#10838876
0$
#10839559
1$
#10841983
0$
#10842663
1$
#10845089
0$
#10845770
1$
#10848196
0$
#10848878
1$
#10851311
0$
#10851995
1$
#10854420
0$
#10855102
1$
#10857530
0$
#10858209
1$
#10860634
0$
#10861314
1$
#10863755
0$
#10864435
1$
#10866862
0$
#10867541
1$
#10869966
0$
#10870648
1$
#10873073
0$
#10873755
1$
#10876189
0$
#10876872
1$
#10879297
0$
#10879979
1$
#10882405
0$
#10883087
1$
#10885510
0$
#10886192
1$
#10888633
0$
#10889312
1$
#10891739
0$
#10892417
1$
#10894844
0$
#10895526
1$
#10897951
0$
#10898633
1$
#10901067
0$
#10901751
1$
#10904176
0$
#10904858
1$
#10907283
0$
#10907965
1$
#10910388
0$
#10911070
1$
#10913509
0$
#10914191
1$
#10916607
0$
#10917284
1$
#10919712
0$
#10920391
1$
#10922819
0$
#10923498
1$
#10925934
0$
#10926618
1$
#10929043
0$
#10930935
1$
#10932152
0$
#10932834
1$
#10935257
0$
#10935939
1$
#12769570
0$
#12770253
1$
#12772661
0$
#12773353
1$
#12775751
0$
#12776435
1$
#12778839
0$
#12780725
1$
#12781937
0$
#12783823
1$
#12785032
0$
#12785703
1$
#12788120
0$
#12788793
1$
#12791210
0$
#12793086
1$
#12794293
0$
#12796181
1$
#12797390
0$
#12798063
1$
#12800482
0$
#12801153
1$
#12803570
0$
#12805460
1$
#14769801
0$
#14770476
1$
#14772893
0$
#14773566
1$
#14775982
0$
#14776655
1$
#14779071
0$
#14780946
1$
#14782159
0$
#14784045
1$
#14785253
0$
#14785924
1$
#14788344
0$
#14789015
1$
#14791434
0$
#14792104
1$
#14794522
0$
#14796400
1$
#14797609
0$
#14798300
1$
#14800699
0$
#14802585
1$
#14803791
0$
#14804464
1$
#14810824
0$
#14812719
1$
#14813925
0$
#14814607
1$
#14817032
0$
#14817714
1$
#14820137
0$
#14822030
1$
#14823261
0$
#14825154
1$
#14826362
0$
#14827039
1$
#14829467
0$
#14830146
1$
#14832574
0$
#14833254
1$
#14835689
0$
#14836373
1$
#14838798
0$
#14839480
1$
#14841905
0$
#14843798
1$
#14845013
0$
#14845695
1$
#14851183
0$
#14851857
1$
#14854274
0$
#14854947
1$
#14857356
0$
#14858037
1$
#14860455
0$
#14862331
1$
#14863543
0$
#14865418
1$
#14866627
0$
#14867308
1$
#14869725
0$
#14870398
1$
#14872815
0$
#14874691
1$
#14875898
0$
#14877786
1$
#14878995
0$
#14879668
1$
#14882085
0$
#14882758
1$
#14885173
0$
#14887049
1$
#16830908
0$
#16831581
1$
#16833996
0$
#16834668
1$
#16837084
0$
#16837765
1$
#16840179
0$
#16842053
1$
#16843266
0$
#16845149
1$
#16846358
0$
#16847036
1$
#16849443
0$
#16850123
1$
#16852540
0$
#16854425
1$
#16855631
0$
#16857507
1$
#16858725
0$
#16859396
1$
#16861811
0$
#16862493
1$
#16864897
0$
#16866782
1$
#16873140
0$
#16875033
1$
#16876240
0$
#16876918
1$
#16879344
0$
#16880023
1$
#16882447
0$
#16884338
1$
#16885568
0$
#16887460
1$
#16888675
0$
#16889353
1$
#16891777
0$
#16893668
1$
#16894884
0$
#16895565
1$
#16898008
0$
#16898690
1$
#16901114
0$
#16901794
1$
#16904221
0$
#16904899
1$
#16907323
0$
#16908001
1$
#16910441
0$
#16911119
1$
#16913545
0$
#16914224
1$
#16916647
0$
#16917328
1$
#16919752
0$
#16920433
1$
#16922876
0$
#16923558
1$
#16925982
0$
#16926663
1$
#16929087
0$
#16929767
1$
#16932192
0$
#16932870
1$
#16935310
0$
#16935988
1$
#16938414
0$
#16939090
1$
#16941516
0$
#16942197
1$
#16944620
0$
#16945301
1$
#16947744
0$
#16948426
1$
#16950850
0$
#16951530
1$
#16953954
0$
#16954635
1$
#16957057
0$
#16957737
1$
#16960174
0$
#16960855
1$
#16963281
0$
#16963968
1$
#16966384
0$
#16967062
1$
#16969489
0$
#16970167
1$
#16972612
0$
#16973295
1$
#16975719
0$
#16976399
1$
#16978823
0$
#16979504
1$
#16981925
0$
#16982606
1$
#16985044
0$
#16985724
1$
#16988148
0$
#16988826
1$
#16991252
0$
#16991930
1$
#16994357
0$
#16995035
1$
#16997480
0$
#16998160
1$
#17000587
0$
#17001267
1$
#17003691
0$
#17004372
1$
#17006794
0$
#17007474
1$
#17009911
0$
#17010592
1$
#17013016
0$
#17013694
1$
#17016118
0$
#17016798
1$
#17019225
0$
#17019903
1$
#17022348
0$
#17023029
1$
#17025455
0$
#17027346
1$
#17028562
0$
#17029242
1$
#17031664
0$
#17032344
1$
#18866575
0$
#18867249
1$
#18869664
0$
#18870346
1$
#18872750
0$
#18873432
1$
#18875846
0$
#18877734
1$
#18878931
0$
#18880815
1$
#18882023
0$
#18882703
1$
#18885110
0$
#18885790
1$
#18888198
0$
#18890080
1$
#18891299
0$
#18893175
1$
#18894382
0$
#18895062
1$
#18897480
0$
#18898172
1$
#18900565
0$
#18902454
1$
#20876437
0$
#20877121
1$
#20879526
0$
#20880208
1$
#20882623
0$
#20883295
1$
#20885708
0$
#20887593
1$
#20888804
0$
#20890678
1$
#20891886
0$
#20892566
1$
#20894983
0$
#20895653
1$
#20898071
0$
#20898754
1$
#20901157
0$
#20903044
1$
#20904250
0$
#20904930
1$
#20907338
0$
#20909223
1$
#20910428
0$
#20911130
1$
#20917488
0$
#20919381
1$
#20920596
0$
#20921277
1$
#20923700
0$
#20924381
1$
#20926803
0$
#20928694
1$
#20929924
0$
#20931816
1$
#20933023
0$
#20933710
1$
#20936125
0$
#20936803
1$
#20939230
0$
#20939907
1$
#20942353
0$
#20943036
1$
#20945459
0$
#20946140
1$
#20948564
0$
#20950455
1$
#20951668
0$
#20952349
1$
#20957248
0$
#20957929
1$
#20960347
0$
#20961019
1$
#20963434
0$
#20964106
1$
#20966520
0$
#20968404
1$
#20969615
0$
#20971489
1$
#20972707
0$
#20973376
1$
#20975792
0$
#20976474
1$
#20978879
0$
#20980763
1$
#20981969
0$
#20983856
1$
#20985095
0$
#20985775
1$
#20988182
0$
#20988861
1$
#20991278
0$
#20993153
1$
#22937002
0$
#22937683
1$
#22940101
0$
#22940770
1$
#22943188
0$
#22943869
1$
#22946283
0$
#22948157
1$
#22949368
0$
#22951253
1$
#22952460
0$
#22953140
1$
#22955545
0$
#22956227
1$
#22958642
0$
#22960530
1$
#22961732
0$
#22963608
1$
#22964816
0$
#22965498
1$
#22967905
0$
#22968585
1$
#22971002
0$
#22972890
1$
#22979183
0$
#22981076
1$
#22982291
0$
#22982971
1$
#22985396
0$
#22986077
1$
#22988498
0$
#22990389
1$
#22991620
0$
#22993511
1$
#22994726
0$
#22995405
1$
#22997828
0$
#22999719
1$
#23000937
0$
#23001616
1$
#23004061
0$
#23004741
1$
#23007167
0$
#23007845
1$
#23010272
0$
#23010952
1$
#23013374
0$
#23014055
1$
#23016492
0$
#23017173
1$
#23019597
0$
#23020275
1$
#23022699
0$
#23023380
1$
#23025804
0$
#23026485
1$
#23028919
0$
#23029599
1$
#23032026
0$
#23032704
1$
#23035130
0$
#23035808
1$
#23038233
0$
#23038913
1$
#23041351
0$
#23042031
1$
#23044455
0$
#23045133
1$
#23047557
0$
#23048238
1$
#23050661
0$
#23051342
1$
#23053785
0$
#23054468
1$
#23056894
0$
#23057572
1$
#23059998
0$
#23060677
1$
#23063101
0$
#23063779
1$
#23066218
0$
#23066899
1$
#23069323
0$
#23070001
1$
#23072425
0$
#23073106
1$
#23075529
0$
#23076210
1$
#23078653
0$
#23079335
1$
#23081759
0$
#23082440
1$
#23084866
0$
#23085544
1$
#23087968
0$
#23088647
1$
#23091087
0$
#23091764
1$
#23094191
0$
#23094868
1$
#23097293
0$
#23097973
1$
#23100397
0$
#23101078
1$
#23103520
0$
#23104203
1$
#23106627
0$
#23107307
1$
#23109731
0$
#23110412
1$
#23112833
0$
#23113514
1$
#23115954
0$
#23116632
1$
#23119059
0$
#23119734
1$
#23122161
0$
#23122839
1$
#23125266
0$
#23125946
1$
#23128389
0$
#23129072
1$
#23131496
0$
#23133387
1$
#23134602
0$
#23135283
1$
#23137705
0$
#23138385
1$
#24972644
0$
#24973317
1$
#24975732
0$
#24976404
1$
#24978822
0$
#24979501
1$
#24981917
0$
#24983805
1$
#24985023
0$
#24986897
1$
#24988115
0$
#24988784
1$
#24991200
0$
#24991882
1$
#24994287
0$
#24996171
1$
#24997377
0$
#24999264
1$
#25000471
0$
#25001153
1$
#25003558
0$
#25004240
1$
#25006653
0$
#25008542
1$
#26982527
0$
#26983201
1$
#26985616
0$
#26986288
1$
#26988706
0$
#26989385
1$
#26991791
0$
#26993675
1$
#26994886
0$
#26996760
1$
#26997977
0$
#26998658
1$
#27001063
0$
#27001744
1$
#27004161
0$
#27004846
1$
#27007246
0$
#27009133
1$
#27010340
0$
#27011023
1$
#27013428
0$
#27015312
1$
#27016518
0$
#27017204
1$
#27023498
0$
#27025391
1$
#27026607
0$
#27027287
1$
#27029713
0$
#27030392
1$
#27032816
0$
#27034707
1$
#27035937
0$
#27037828
1$
#27039044
0$
#27039722
1$
#27042146
0$
#27042827
1$
#27045251
0$
#27045931
1$
#27048374
0$
#27049057
1$
#27051480
0$
#27052161
1$
#27054585
0$
#27056476
1$
#27057692
0$
#27058370
1$
#27063859
0$
#27064540
1$
#27066947
0$
#27067627
1$
#27070045
0$
#27070717
1$
#27073131
0$
#27075015
1$
#27076226
0$
#27078101
1$
#27079308
0$
#27079988
1$
#27082403
0$
#27083086
1$
#27085491
0$
#27087379
1$
#27088581
0$
#27090468
1$
#27091677
0$
#27092346
1$
#27094764
0$
#27095444
1$
#27097861
0$
#27099735
1$
#29033341
0$
#29034015
1$
#29036430
0$
#29037112
1$
#29039517
0$
#29040199
1$
#29042615
0$
#29044500
1$
#29045699
0$
#29047584
1$
#29048791
0$
#29049469
1$
#29051887
0$
#29052558
1$
#29054974
0$
#29056849
1$
#29058065
0$
#29059941
1$
#29061149
0$
#29061830
1$
#29064246
0$
#29064918
1$
#29067332
0$
#29069220
1$
#29075513
0$
#29077406
1$
#29078613
0$
#29079292
1$
#29081718
0$
#29082396
1$
#29084820
0$
#29086712
1$
#29087942
0$
#29089833
1$
#29091049
0$
#29091726
1$
#29094150
0$
#29096042
1$
#29097257
0$
#29097938
1$
#29100381
0$
#29101063
1$
#29103487
0$
#29104168
1$
#29106594
0$
#29107272
1$
#29109696
0$
#29110374
1$
#29112813
0$
#29113492
1$
#29115918
0$
#29116596
1$
#29119021
0$
#29119701
1$
#29122126
0$
#29122806
1$
#29125249
0$
#29125931
1$
#29128356
0$
#29129037
1$
#29131460
0$
#29132141
1$
#29134565
0$
#29135243
1$
#29137683
0$
#29138361
1$
#29140788
0$
#29141463
1$
#29143889
0$
#29144570
1$
#29146994
0$
#29147675
1$
#29150118
0$
#29150800
1$
#29153224
0$
#29153905
1$
#29156329
0$
#29157009
1$
#29159431
0$
#29160111
1$
#29162551
0$
#29163229
1$
#29165655
0$
#29166331
1$
#29168757
0$
#29169435
1$
#29171861
0$
#29172542
1$
#29174985
0$
#29175668
1$
#29178092
0$
#29178772
1$
#29181196
0$
#29181877
1$
#29184299
0$
#29184979
1$
#29187417
0$
#29188098
1$
#29190522
0$
#29191200
1$
#29193626
0$
#29194304
1$
#29196730
0$
#29197409
1$
#29199854
0$
#29200537
1$
#29202960
0$
#29203641
1$
#29206065
0$
#29206746
1$
#29209167
0$
#29209848
1$
#29212285
0$
#29212965
1$
#29215389
0$
#29216068
1$
#29218491
0$
#29219172
1$
#29221598
0$
#29222276
1$
#29224721
0$
#29225402
1$
#29227828
0$
#29229719
1$
#29230935
0$
#29231615
1$
#29234037
0$
#29234717
1$
