target_desktop/captures/toggles/OLD_app_demo_toggles.vcd
$date
   2016-03-18 12:17
$end
$version
   generated by /home/tulth/projects/acura_bluetooth/diy-acura-bluetooth/target_desktop/py_lib/mbus/toggles/__init__.py
$end
$comment
   generated by /home/tulth/projects/acura_bluetooth/diy-acura-bluetooth/target_desktop/py_lib/mbus/toggles/__init__.py
$end
$timescale 1us $end
$scope module logic $end
$var wire 1 $ mbus $end
$upscope $end
$enddefinitions $end
$dumpvars
x$
$end
#2250082
1$
#3204775
0$
#3205453
1$
#3207871
0$
#3208546
1$
#3210954
0$
#3211642
1$
#3214046
0$
#3215926
1$
#3217138
0$
#3219019
1$
#3220227
0$
#3220903
1$
#3223319
0$
#3223997
1$
#3226402
0$
#3227080
1$
#3229495
0$
#3231377
1$
#3232596
0$
#3233274
1$
#3235682
0$
#3237570
1$
#3238779
0$
#3239458
1$
#5214640
0$
#5215348
1$
#5217736
0$
#5218411
1$
#5220819
0$
#5221505
1$
#5223911
0$
#5225805
1$
#5227004
0$
#5228894
1$
#5230102
0$
#5230779
1$
#5233194
0$
#5233862
1$
#5236278
0$
#5236956
1$
#5239370
0$
#5241252
1$
#5242461
0$
#5243138
1$
#5245547
0$
#5247435
1$
#5248644
0$
#5249320
1$
#5252591
0$
#5254482
1$
#5255698
0$
#5256379
1$
#5258809
0$
#5259492
1$
#5261912
0$
#5263805
1$
#5265033
0$
#5266928
1$
#5268141
0$
#5268827
1$
#5271245
0$
#5271920
1$
#5274346
0$
#5275021
1$
#5277461
0$
#5278136
1$
#5280566
0$
#5281247
1$
#5283667
0$
#5285560
1$
#5286774
0$
#5287457
1$
#5296555
0$
#5297232
1$
#5299650
0$
#5300326
1$
#5302734
0$
#5303420
1$
#5305826
0$
#5307706
1$
#5308918
0$
#5309596
1$
#5312012
0$
#5312688
1$
#5315094
0$
#5315772
1$
#5318187
0$
#5320067
1$
#5321285
0$
#5321965
1$
#5324380
0$
#5325058
1$
#5327474
0$
#5328152
1$
#5330558
0$
#5332436
1$
#5333650
0$
#5335530
1$
#5336739
0$
#5337413
1$
#5339831
0$
#5340506
1$
#5342914
0$
#5343606
1$
#5346008
0$
#5346687
1$
#5349103
0$
#5349781
1$
#5352186
0$
#5352864
1$
#5355278
0$
#5357158
1$
#5358370
0$
#5360270
1$
#5361458
0$
#5362135
1$
#5364553
0$
#5365228
1$
#5367637
0$
#5369527
1$
#5758906
0$
#5759586
1$
#5761992
0$
#5762669
1$
#5765085
0$
#5765763
1$
#5768177
0$
#5770057
1$
#5771269
0$
#5773159
1$
#5774367
0$
#5775055
1$
#5777450
0$
#5778128
1$
#5780546
0$
#5782424
1$
#5783634
0$
#5785515
1$
#5786724
0$
#5787399
1$
#5789818
0$
#5790494
1$
#5792910
0$
#5794790
1$
#5798079
0$
#5799972
1$
#5801185
0$
#5801869
1$
#5804286
0$
#5804972
1$
#5807390
0$
#5809282
1$
#5810512
0$
#5812404
1$
#5813620
0$
#5814303
1$
#5816724
0$
#5818616
1$
#5819828
0$
#5820513
1$
#5822943
0$
#5823618
1$
#5826046
0$
#5826729
1$
#5829157
0$
#5829843
1$
#5832260
0$
#5832946
1$
#5835381
0$
#5836058
1$
#5838486
0$
#5839172
1$
#5841592
0$
#5842275
1$
#5844693
0$
#5845376
1$
#5847808
0$
#5848491
1$
#5850911
0$
#5851595
1$
#5854013
0$
#5854698
1$
#5857115
0$
#5857801
1$
#5860237
0$
#5860913
1$
#5863341
0$
#5864027
1$
#5866444
0$
#5867130
1$
#5869548
0$
#5870231
1$
#5872663
0$
#5873346
1$
#5875766
0$
#5876447
1$
#5878867
0$
#5879553
1$
#5881970
0$
#5882656
1$
#5885092
0$
#5885768
1$
#5888196
0$
#5888882
1$
#5891299
0$
#5891985
1$
#5894401
0$
#5895076
1$
#5897518
0$
#5898202
1$
#5900622
0$
#5901302
1$
#5903722
0$
#5904406
1$
#5906826
0$
#5907511
1$
#5909947
0$
#5910623
1$
#5913052
0$
#5913737
1$
#5916155
0$
#5916840
1$
#5919256
0$
#5919941
1$
#5922371
0$
#5923046
1$
#5925474
0$
#5926157
1$
#5928577
0$
#5929261
1$
#5931680
0$
#5932364
1$
#5934801
0$
#5935476
1$
#5937906
0$
#5938592
1$
#5941011
0$
#5941696
1$
#5944111
0$
#5944797
1$
#5947227
0$
#5947901
1$
#5950329
0$
#5952230
1$
#5953433
0$
#5954119
1$
#5956539
0$
#5957222
1$
#7794492
0$
#7795169
1$
#7797577
0$
#7798263
1$
#7800670
0$
#7801346
1$
#7803762
0$
#7805642
1$
#7806854
0$
#7808734
1$
#7809942
0$
#7810618
1$
#7813034
0$
#7813712
1$
#7816117
0$
#7817997
1$
#7819215
0$
#7821087
1$
#7822306
0$
#7822994
1$
#7825392
0$
#7826068
1$
#7828485
0$
#7830362
1$
#9784457
0$
#9785134
1$
#9787552
0$
#9788227
1$
#9790635
0$
#9791312
1$
#9793726
0$
#9795620
1$
#9796818
0$
#9798698
1$
#9799907
0$
#9800583
1$
#9802999
0$
#9803677
1$
#9806093
0$
#9806774
1$
#9809175
0$
#9811057
1$
#9812265
0$
#9812953
1$
#9815361
0$
#9817239
1$
#9818449
0$
#9819124
1$
#9822395
0$
#9824288
1$
#9825502
0$
#9826182
1$
#9828602
0$
#9829288
1$
#9831705
0$
#9833598
1$
#9834826
0$
#9836721
1$
#9837934
0$
#9838620
1$
#9841037
0$
#9841723
1$
#9844138
0$
#9844824
1$
#9847253
0$
#9847928
1$
#9850358
0$
#9851040
1$
#9853459
0$
#9855352
1$
#9856565
0$
#9857249
1$
#9862748
0$
#9863428
1$
#9865843
0$
#9866521
1$
#9868927
0$
#9869604
1$
#9872019
0$
#9873933
1$
#9875111
0$
#9876991
1$
#9878199
0$
#9878875
1$
#9881293
0$
#9881969
1$
#9884377
0$
#9886269
1$
#9887475
0$
#9889347
1$
#9890556
0$
#9891241
1$
#9893649
0$
#9894327
1$
#9896741
0$
#9898621
1$
#11855732
0$
#11856412
1$
#11858817
0$
#11859495
1$
#11861910
0$
#11862588
1$
#11865002
0$
#11866892
1$
#11868095
0$
#11869975
1$
#11871186
0$
#11871890
1$
#11874278
0$
#11874954
1$
#11877372
0$
#11879251
1$
#11880459
0$
#11882341
1$
#11883550
0$
#11884227
1$
#11886643
0$
#11887321
1$
#11889725
0$
#11891605
1$
#11894894
0$
#11896787
1$
#11898001
0$
#11898684
1$
#11901102
0$
#11901787
1$
#11904207
0$
#11906098
1$
#11907327
0$
#11909222
1$
#11910435
0$
#11911119
1$
#11913539
0$
#11915432
1$
#11916643
0$
#11917329
1$
#11919758
0$
#11920433
1$
#11922861
0$
#11923545
1$
#11925962
0$
#11926648
1$
#11929066
0$
#11929751
1$
#11932189
0$
#11932863
1$
#11935294
0$
#11935977
1$
#11938397
0$
#11939081
1$
#11941499
0$
#11942184
1$
#11944614
0$
#11945289
1$
#11947716
0$
#11948400
1$
#11950817
0$
#11951503
1$
#11953920
0$
#11954606
1$
#11957042
0$
#11957718
1$
#11960146
0$
#11960832
1$
#11963252
0$
#11963935
1$
#11966353
0$
#11967037
1$
#11969468
0$
#11970152
1$
#11972572
0$
#11973255
1$
#11975672
0$
#11976358
1$
#11978775
0$
#11979461
1$
#11981896
0$
#11982573
1$
#11985002
0$
#11985687
1$
#11988105
0$
#11988790
1$
#11991208
0$
#11991891
1$
#11994323
0$
#11995007
1$
#11997427
0$
#11998108
1$
#12000528
0$
#12001203
1$
#12003631
0$
#12004316
1$
#12006752
0$
#12007429
1$
#12009857
0$
#12010542
1$
#12012960
0$
#12013646
1$
#12016062
0$
#12016747
1$
#12019179
0$
#12019863
1$
#12022283
0$
#12022964
1$
#12025383
0$
#12026067
1$
#12028487
0$
#12029172
1$
#12031608
0$
#12032284
1$
#12034712
0$
#12035398
1$
#12037816
0$
#12038502
1$
#12040917
0$
#12041603
1$
#12044033
0$
#12044708
1$
#12047136
0$
#12049027
1$
#12050242
0$
#12050926
1$
#12053346
0$
#12054029
1$
#13890659
0$
#13891338
1$
#13893754
0$
#13894432
1$
#13896837
0$
#13897515
1$
#13899929
0$
#13901843
1$
#13903022
0$
#13904901
1$
#13906112
0$
#13906786
1$
#13909205
0$
#13909880
1$
#13912298
0$
#13914182
1$
#13915386
0$
#13917268
1$
#13918476
0$
#13919154
1$
#13921560
0$
#13922248
1$
#13924652
0$
#13926532
1$
#15901130
0$
#15901808
1$
#15904215
0$
#15904891
1$
#15907308
0$
#15907986
1$
#15910400
0$
#15912280
1$
#15913482
0$
#15915362
1$
#15916581
0$
#15917257
1$
#15919662
0$
#15920340
1$
#15922756
0$
#15923434
1$
#15925848
0$
#15927731
1$
#15928939
0$
#15929617
1$
#15932025
0$
#15933903
1$
#15935112
0$
#15935802
1$
#15939010
0$
#15940900
1$
#15942116
0$
#15942797
1$
#15945227
0$
#15945910
1$
#15948330
0$
#15950223
1$
#15951451
0$
#15953346
1$
#15954559
0$
#15955245
1$
#15957663
0$
#15958348
1$
#15960764
0$
#15961449
1$
#15963879
0$
#15964554
1$
#15966984
0$
#15967665
1$
#15970085
0$
#15971978
1$
#15973191
0$
#15973875
1$
#15979383
0$
#15980053
1$
#15982469
0$
#15983147
1$
#15985562
0$
#15986241
1$
#15988644
0$
#15990538
1$
#15991756
0$
#15993636
1$
#15994845
0$
#15995521
1$
#15997937
0$
#15998615
1$
#16001024
0$
#16002915
1$
#16004111
0$
#16005993
1$
#16007201
0$
#16007877
1$
#16010295
0$
#16010973
1$
#16013387
0$
#16015271
1$
#17962133
0$
#17962810
1$
#17965215
0$
#17965902
1$
#17968306
0$
#17968982
1$
#17971394
0$
#17973283
1$
#17974494
0$
#17976372
1$
#17977580
0$
#17978255
1$
#17980669
0$
#17981345
1$
#17983760
0$
#17985638
1$
#17986847
0$
#17988735
1$
#17989935
0$
#17990619
1$
#17993026
0$
#17993710
1$
#17996115
0$
#17998009
1$
#18001232
0$
#18003124
1$
#18004336
0$
#18005019
1$
#18007445
0$
#18008129
1$
#18010556
0$
#18012447
1$
#18013673
0$
#18015567
1$
#18016779
0$
#18017463
1$
#18019882
0$
#18021782
1$
#18022984
0$
#18023666
1$
#18026107
0$
#18026789
1$
#18029207
0$
#18029890
1$
#18032316
0$
#18033001
1$
#18035427
0$
#18036112
1$
#18038546
0$
#18039221
1$
#18041647
0$
#18042332
1$
#18044758
0$
#18045443
1$
#18047859
0$
#18048541
1$
#18050982
0$
#18051664
1$
#18054083
0$
#18054762
1$
#18057191
0$
#18057876
1$
#18060292
0$
#18060977
1$
#18063410
0$
#18064086
1$
#18066513
0$
#18067197
1$
#18069613
0$
#18070298
1$
#18072722
0$
#18073407
1$
#18075848
0$
#18076530
1$
#18078949
0$
#18079628
1$
#18082058
0$
#18082740
1$
#18085169
0$
#18085853
1$
#18088287
0$
#18088962
1$
#18091389
0$
#18092074
1$
#18094490
0$
#18095174
1$
#18097599
0$
#18098283
1$
#18100722
0$
#18101395
1$
#18103822
0$
#18104504
1$
#18106922
0$
#18107604
1$
#18110023
0$
#18110705
1$
#18113141
0$
#18113825
1$
#18116243
0$
#18116928
1$
#18119344
0$
#18120029
1$
#18122454
0$
#18123139
1$
#18125577
0$
#18126251
1$
#18128677
0$
#18129359
1$
#18131786
0$
#18132471
1$
#18134889
0$
#18135571
1$
#18138008
0$
#18138692
1$
#18141110
0$
#18141792
1$
#18144221
0$
#18144906
1$
#18147331
0$
#18148015
1$
#18150454
0$
#18151138
1$
#18153555
0$
#18155454
1$
#18156656
0$
#18157340
1$
#18159756
0$
#18160441
1$
#19997680
0$
#19998359
1$
#20000775
0$
#20001449
1$
#20003865
0$
#20004539
1$
#20006954
0$
#20008833
1$
#20010044
0$
#20011922
1$
#20013130
0$
#20013815
1$
#20016229
0$
#20016906
1$
#20019309
0$
#20021202
1$
#20022404
0$
#20024285
1$
#20025492
0$
#20026168
1$
#20028583
0$
#20029259
1$
#20031672
0$
#20033551
1$
#22008145
0$
#22008823
1$
#22011238
0$
#22011914
1$
#22014328
0$
#22015005
1$
#22017417
0$
#22019310
1$
#22020506
0$
#22022385
1$
#22023622
0$
#22024307
1$
#22026714
0$
#22027398
1$
#22029804
0$
#22030478
1$
#22032894
0$
#22034774
1$
#22035982
0$
#22036658
1$
#22039073
0$
#22040962
1$
#22042167
0$
#22042844
1$
#22046112
0$
#22048004
1$
#22049215
0$
#22049897
1$
#22052324
0$
#22053009
1$
#22055435
0$
#22057326
1$
#22058553
0$
#22060446
1$
#22061660
0$
#22062343
1$
#22064761
0$
#22065443
1$
#22067870
0$
#22068552
1$
#22070993
0$
#22071667
1$
#22074094
0$
#22074776
1$
#22077202
0$
#22079094
1$
#22080306
0$
#22080990
1$
#22086476
0$
#22087155
1$
#22089588
0$
#22090265
1$
#22092681
0$
#22093355
1$
#22095770
0$
#22097649
1$
#22098860
0$
#22100749
1$
#22101956
0$
#22102630
1$
#22105045
0$
#22105722
1$
#22108136
0$
#22110015
1$
#22111221
0$
#22113102
1$
#22114319
0$
#22114996
1$
#22117410
0$
#22118087
1$
#22120500
0$
#22122382
1$
#24068633
0$
#24069320
1$
#24071725
0$
#24072410
1$
#24074816
0$
#24075490
1$
#24077905
0$
#24079784
1$
#24080995
0$
#24082874
1$
#24084091
0$
#24084766
1$
#24087180
0$
#24087857
1$
#24090271
0$
#24092150
1$
#24093356
0$
#24095237
1$
#24096444
0$
#24097121
1$
#24099547
0$
#24100231
1$
#24102636
0$
#24104544
1$
#24107832
0$
#24109724
1$
#24110936
0$
#24111618
1$
#24114045
0$
#24114729
1$
#24117156
0$
#24119048
1$
#24120274
0$
#24122167
1$
#24123379
0$
#24124063
1$
#24126479
0$
#24128371
1$
#24129583
0$
#24130265
1$
#24132706
0$
#24133388
1$
#24135807
0$
#24136486
1$
#24138915
0$
#24139599
1$
#24142016
0$
#24142700
1$
#24145134
0$
#24145810
1$
#24148236
0$
#24148921
1$
#24151347
0$
#24152032
1$
#24154456
0$
#24155141
1$
#24157571
0$
#24158254
1$
#24160672
0$
#24161352
1$
#24163781
0$
#24164463
1$
#24166882
0$
#24167566
1$
#24170000
0$
#24170675
1$
#24173102
0$
#24173786
1$
#24176213
0$
#24176897
1$
#24179322
0$
#24180007
1$
#24182445
0$
#24183119
1$
#24185548
0$
#24186228
1$
#24188657
0$
#24189339
1$
#24191768
0$
#24192450
1$
#24194886
0$
#24195562
1$
#24197988
0$
#24198673
1$
#24201089
0$
#24201773
1$
#24204198
0$
#24204883
1$
#24207321
0$
#24207995
1$
#24210422
0$
#24211104
1$
#24213533
0$
#24214215
1$
#24216634
0$
#24217316
1$
#24219753
0$
#24220436
1$
#24222855
0$
#24223539
1$
#24225965
0$
#24226650
1$
#24229075
0$
#24229759
1$
#24232198
0$
#24232872
1$
#24235298
0$
#24235980
1$
#24238407
0$
#24239092
1$
#24241521
0$
#24242203
1$
#24244639
0$
#24245323
1$
#24247741
0$
#24248423
1$
#24250842
0$
#24251526
1$
#24253951
0$
#24254635
1$
#24257074
0$
#24257758
1$
#24260175
0$
#24262075
1$
#24263276
0$
#24263961
1$
#24266377
0$
#24267062
1$
